4411129001,10,BipIP 1,a,Agung Ekoputro, PUSAT,BCA,PUSAT,1,Y
4411129001,10,BigIP 2,a,Agung Ekoputro, PUSAT,BCA,PUSAT,1,Y
4411129001,10,BipIP 1,a,Agung Ekoputro, PUSAT,BCA,PUSAT,1,Y
4411129001,10,BigIP 2,a,Agung Ekoputro, PUSAT,BCA,PUSAT,1,1,agung.ekoputro@danamon.co.id,agungeko@yahoo.com,agungq1000@gmail.com
4411129001,10,BipIP 1,a,Agung Ekoputro, PUSAT,BCA,PUSAT,1,Y
4411129001,10,BigIP 2,a,Agung Ekoputro, PUSAT,BCA,PUSAT,1,Y
4411129001,10,BipIP 1,a,Agung Ekoputro, PUSAT,BCA,PUSAT,1,Y
4411129001,10,BigIP 2,a,Agung Ekoputro, PUSAT,BCA,PUSAT,1,Y
4411129001,10,BipIP 1,a,Agung Ekoputro, PUSAT,BCA,PUSAT,1,Y
